{
  "items": [
    {
      "new-url-prd": "https://gitlab.com/albit-public/public/raw/master/banners/index.json",
      "new-url-dev": "https://gitlab.com/albit-public/public/raw/master/dev/banners/index.json",
      "image": "https://gitlab.com/albit-public/public/raw/master/banners/images/test/test-warning.jpg",
      "action": "OpenWebPage",
      "service": "GIG",
      "data": "https://gitlab.com/albit-public/public/raw/master/banners/index.json"
    }
  ]
}
